{
  "images" : [
    {
      "idiom" : "universal",
      "filename" : "_0025_Group-6.png",
      "scale" : "1x"
    },
    {
      "idiom" : "universal",
      "filename" : "_0025_Group-4.png",
      "scale" : "2x"
    },
    {
      "idiom" : "universal",
      "filename" : "_0025_Group-5.png",
      "scale" : "3x"
    }
  ],
  "info" : {
    "version" : 1,
    "author" : "xcode"
  }
}