{
  "images" : [
    {
      "idiom" : "universal",
      "filename" : "_0010_Vector-Smart-Object-2.png",
      "scale" : "1x"
    },
    {
      "idiom" : "universal",
      "filename" : "_0010_Vector-Smart-Object-1.png",
      "scale" : "2x"
    },
    {
      "idiom" : "universal",
      "filename" : "_0010_Vector-Smart-Object.png",
      "scale" : "3x"
    }
  ],
  "info" : {
    "version" : 1,
    "author" : "xcode"
  }
}